{
	"discoveryModel": {
		"name": "ob-v3.1-lloyds-bank-aisp-pisp",
		"description": "A discovery template for testing AISP and PISP v3.1 endpoints.",
		"discoveryVersion": "v0.3.0",
		"tokenAcquisition": "psu",
		"discoveryItems": [{
				"apiSpecification": {
					"name": "Account and Transaction API Specification",
					"url": "https://openbanking.atlassian.net/wiki/spaces/DZ/pages/937820271/Account+and+Transaction+API+Specification+-+v3.1",
					"version": "v3.1.0",
					"schemaVersion": "https://raw.githubusercontent.com/OpenBankingUK/read-write-api-specs/v3.1.0/dist/account-info-swagger.json",
					"manifest": "file://manifests/ob_3.1_accounts_transactions_fca.json"
				},
				"openidConfigurationUri": "https://as.aspsp.sandbox.lloydsbanking.com/oauth2/.well-known/openid-configuration",
				"resourceBaseUri": "https://matls.rs.aspsp.sandbox.lloydsbanking.com/open-banking/v3.1/aisp",
				"endpoints": [{
						"method": "GET",
						"path": "/accounts"
					},
					{
						"method": "POST",
						"path": "/account-access-consents"
					},
					{
						"method": "GET",
						"path": "/accounts/{AccountId}/transactions"
					},
					{
						"method": "GET",
						"path": "/accounts/{AccountId}/beneficiaries"
					},
					{
						"method": "GET",
						"path": "/accounts/{AccountId}/direct-debits"
					},
					{
						"method": "GET",
						"path": "/accounts/{AccountId}/standing-orders"
					},
					{
						"method": "GET",
						"path": "/accounts/{AccountId}/product"
					},
					{
						"method": "GET",
						"path": "/accounts/{AccountId}/scheduled-payments"
					},
					{
						"method": "GET",
						"path": "/account-access-consents/{ConsentId}"
					},
					{
						"method": "DELETE",
						"path": "/account-access-consents/{ConsentId}"
					},
					{
						"method": "GET",
						"path": "/accounts/{AccountId}"
					},
					{
						"method": "GET",
						"path": "/accounts/{AccountId}/balances"
					}
				]
			},
			{
				"apiSpecification": {
					"name": "Payment Initiation API",
					"url": "https://openbanking.atlassian.net/wiki/spaces/DZ/pages/937754701/Payment+Initiation+API+Specification+-+v3.1",
					"version": "v3.1.0",
					"schemaVersion": "https://raw.githubusercontent.com/OpenBankingUK/read-write-api-specs/v3.1.0/dist/payment-initiation-swagger.json",
					"manifest": "file://manifests/ob_3.1_payment_fca.json"
				},
				"openidConfigurationUri": "https://modelobankauth2018.o3bank.co.uk:4101/.well-known/openid-configuration",
				"resourceBaseUri": "https://matls.rs.aspsp.sandbox.lloydsbanking.com/open-banking/v3.1/pisp",
				"endpoints": [{
						"method": "POST",
						"path": "/domestic-payment-consents",
						"conditionalProperties": [{
							"schema": "OBWriteDataDomesticConsentResponse1",
							"property": "Charges",

							"path": "Data.Charges"
						}]
					},
					{
						"method": "GET",
						"path": "/domestic-payment-consents/{ConsentId}",
						"conditionalProperties": [{
							"schema": "OBWriteDataDomesticConsentResponse1",
							"property": "Charges",
							"path": "Data.Charges"
						}]
					},
					{
						"method": "GET",
						"path": "/domestic-payment-consents/{ConsentId}/funds-confirmation"
					},
					{
						"method": "POST",
						"path": "/domestic-payments",
						"conditionalProperties": [{
							"schema": "OBWriteDataDomesticResponse1",
							"property": "Charges",
							"path": "Data.Charges"
						}]
					},
					{
						"method": "GET",
						"path": "/domestic-payments/{DomesticPaymentId}",
						"conditionalProperties": [{
							"schema": "OBWriteDataDomesticResponse1",
							"property": "Charges",
							"path": "Data.Charges"
						}]
					}
				]
			}
		]
	}
}