{
  "discoveryModel": {
    "name": "ob-v3.1-generic",
    "description": "An Open Banking UK discovery template for v3.1 of Accounts and Payments.",
    "discoveryVersion": "v0.3.0",
    "tokenAcquisition": "psu",
    "discoveryItems": [
      {
        "apiSpecification": {
          "name": "Payment Initiation API",
          "url": "https://openbanking.atlassian.net/wiki/spaces/DZ/pages/937754701/Payment+Initiation+API+Specification+-+v3.1",
          "version": "v3.1.0",
          "schemaVersion": "https://raw.githubusercontent.com/OpenBankingUK/read-write-api-specs/v3.1.0/dist/payment-initiation-swagger.json",
          "manifest": "file://manifests/ob_3.1_payment_fca.json"
        },
        "openidConfigurationUri": "https://obp-auth.danskebank.com/open-banking/private/.well-known/openid-configuration",
        "resourceBaseUri": "https://obp-api.danskebank.com/open-banking/v3.1/pisp",
        "endpoints": [
          {
            "method": "POST",
            "path": "/domestic-payment-consents",
            "conditionalProperties": [
              {
                "schema": "OBWriteDataDomesticConsentResponse1",
                "property": "Charges",
                "path": "Data.Charges"
              }
            ]
          },
          {
            "method": "GET",
            "path": "/domestic-payment-consents/{ConsentId}",
            "conditionalProperties": [
              {
                "schema": "OBWriteDataDomesticConsentResponse1",
                "property": "Charges",
                "path": "Data.Charges"
              }
            ]
          },
          {
            "method": "GET",
            "path": "/domestic-payment-consents/{ConsentId}/funds-confirmation"
          },
          {
            "method": "POST",
            "path": "/domestic-payments",
            "conditionalProperties": [
              {
                "schema": "OBWriteDataDomesticResponse1",
                "property": "Charges",
                "path": "Data.Charges"
              }
            ]
          },
          {
            "method": "GET",
            "path": "/domestic-payments/{DomesticPaymentId}",
            "conditionalProperties": [
              {
                "schema": "OBWriteDataDomesticResponse1",
                "property": "Charges",
                "path": "Data.Charges"
              }
            ]
          },
          {
            "method": "POST",
            "path": "/domestic-scheduled-payment-consents"
          },
          {
            "method": "GET",
            "path": "/domestic-scheduled-payment-consents/{ConsentId}"
          },
          {
            "method": "POST",
            "path": "/domestic-scheduled-payments"
          },
          {
            "method": "GET",
            "path": "/domestic-scheduled-payments/{DomesticScheduledPaymentId}"
          },
          {
            "method": "POST",
            "path": "/domestic-standing-order-consents"
          },
          {
            "method": "GET",
            "path": "/domestic-standing-order-consents/{ConsentId}"
          },
          {
            "method": "POST",
            "path": "/domestic-standing-orders"
          },
          {
            "method": "GET",
            "path": "/domestic-standing-orders/{DomesticStandingOrderId}"
          }
        ]
      }
    ],
    "customTests": null
  }
}