{
  "id": "c4d85579-7704-475d-afd5-d6333dc6d054",
  "created": "2019-08-21T07:56:38Z",
  "expiration": "2019-11-21T07:56:38Z",
  "fails": 1,
  "version": "0.0.1",
  "status": "Complete",
  "certifiedBy": {
    "environment": "production",
    "brand": "Danske Bank",
    "authorisedBy": "David Michael Scott",
    "jobTitle": "Project Manager"
  },
  "signatureChain": [],
  "apiSpecification": [
    {
      "name": "Payment Initiation API",
      "tls_version": "TLS12",
      "tls_version_valid": true,
      "version": "v3.1.0",
      "results": [
        {
          "id": "OB-301-DOP-100100",
          "pass": true,
          "metrics": {
            "response_time": 271.7116,
            "response_size": 671
          },
          "detail": "Check Domestic Payment consents returns in AwaitingAuthorisation.",
          "refURI": "https://openbanking.atlassian.net/wiki/spaces/DZ/pages/937984109/Domestic+Payments+v3.1#DomesticPaymentsv3.1-POST/domestic-payment-consents",
          "endpoint": "https://obp-api.danskebank.com/open-banking/v3.1/pisp/domestic-payment-consents"
        },
        {
          "id": "OB-301-DOP-100200",
          "pass": false,
          "metrics": {
            "response_time": 500.5373,
            "response_size": 112
          },
          "fail": [
            "{\"endpointResponse\":\"{ \\\"httpCode\\\":\\\"401\\\", \\\"httpMessage\\\":\\\"Unauthorized\\\", \\\"moreInformation\\\":\\\"application is not registered, or active\\\" }\",\"testCaseMessage\":\"(OB-301-DOP-100200):PISP Domestic Payment funds-confirmation for none authorised status consent status: HTTP Status code does not match: expected 400 got 401\"}",
            "{\"endpointResponse\":\"{ \\\"httpCode\\\":\\\"401\\\", \\\"httpMessage\\\":\\\"Unauthorized\\\", \\\"moreInformation\\\":\\\"application is not registered, or active\\\" }\",\"testCaseMessage\":\"Content-Type Error: Should produce params 'charset=utf-8', but got: ''\"}"
          ],
          "detail": "Check PISP Domestic Payment funds-confirmation is not Authorised, responds with a 400 (Bad Request) and a UK.OBIE.Resource.InvalidConsentStatus error code.",
          "refURI": "https://openbanking.atlassian.net/wiki/spaces/DZ/pages/937984109/Domestic+Payments+v3.1#DomesticPaymentsv3.1-GET/domestic-payment-consents/{ConsentId}/funds-confirmation",
          "endpoint": "https://obp-api.danskebank.com/open-banking/v3.1/pisp/domestic-payment-consents/urn:obp:pi:3.1:d42f758a-9db8-4070-ae89-ae670b511d10/funds-confirmation"
        },
        {
          "id": "OB-301-DOP-100400",
          "pass": true,
          "metrics": {
            "response_time": 695.5233,
            "response_size": 660
          },
          "detail": "Check Domestic Payment status is Authorised after calling /domestic-payment-consents.",
          "refURI": "https://openbanking.atlassian.net/wiki/spaces/DZ/pages/937984109/Domestic+Payments+v3.1#DomesticPaymentsv3.1-POST/domestic-payments",
          "endpoint": "https://obp-api.danskebank.com/open-banking/v3.1/pisp/domestic-payment-consents/urn:obp:pi:3.1:6695e73c-1ef5-447b-b5fc-fc2ec676138e"
        },
        {
          "id": "OB-301-DOP-100500",
          "pass": true,
          "metrics": {
            "response_time": 622.4041,
            "response_size": 288
          },
          "detail": "Check PISP Domestic Payment funds-confirmation is Authorised, responds with a 200 (Status OK) and funds available.",
          "refURI": "https://openbanking.atlassian.net/wiki/spaces/DZ/pages/937984109/Domestic+Payments+v3.1#DomesticPaymentsv3.1-GET/domestic-payment-consents/{ConsentId}/funds-confirmation",
          "endpoint": "https://obp-api.danskebank.com/open-banking/v3.1/pisp/domestic-payment-consents/urn:obp:pi:3.1:6695e73c-1ef5-447b-b5fc-fc2ec676138e/funds-confirmation"
        },
        {
          "id": "OB-301-DOP-100600",
          "pass": true,
          "metrics": {
            "response_time": 1606.9439,
            "response_size": 703
          },
          "detail": "Check that once the domestic-payment-consent has been authorised by the PSU, the PISP can proceed to submitting the domestic-payment for processing.",
          "refURI": "https://openbanking.atlassian.net/wiki/spaces/DZ/pages/999623013/Domestic+Payments+v3.1.1#DomesticPaymentsv3.1.1-POST/domestic-payments",
          "endpoint": "https://obp-api.danskebank.com/open-banking/v3.1/pisp/domestic-payments"
        },
        {
          "id": "OB-301-DOP-100700",
          "pass": true,
          "metrics": {
            "response_time": 184.2793,
            "response_size": 703
          },
          "detail": "Check PISP can retrieve the domestic-payment to check its status.",
          "refURI": "https://openbanking.atlassian.net/wiki/spaces/DZ/pages/999623013/Domestic+Payments+v3.1.1#DomesticPaymentsv3.1.1-GET/domestic-payments/{DomesticPaymentId}",
          "endpoint": "https://obp-api.danskebank.com/open-banking/v3.1/pisp/domestic-payments/b383d550-13dc-4455-81be-1594906a514a"
        },
        {
          "id": "OB-301-DOP-100900",
          "pass": true,
          "metrics": {
            "response_time": 150.3027,
            "response_size": 755
          },
          "detail": "Check PISP can retrieve Domestic Scheduled Payment consent resource status is Authorised.",
          "refURI": "https://openbanking.atlassian.net/wiki/spaces/DZ/pages/999786587/Domestic+Scheduled+Payment+v3.1.1#DomesticScheduledPaymentv3.1.1-GET/domestic-scheduled-payment-consents/{ConsentId}",
          "endpoint": "https://obp-api.danskebank.com/open-banking/v3.1/pisp/domestic-scheduled-payment-consents/urn:obp:pi:3.1:2db51181-04dd-463c-8b5c-50c4164eed22"
        },
        {
          "id": "OB-301-DOP-101000",
          "pass": true,
          "metrics": {
            "response_time": 173.2195,
            "response_size": 766
          },
          "detail": "Checks that the resource succeeds posting a domestic scheduled payment with a minimal data set and checks additional schema.",
          "refURI": "https://openbanking.atlassian.net/wiki/spaces/DZ/pages/999786587/Domestic+Scheduled+Payment+v3.1.1#DomesticScheduledPaymentv3.1.1-POST/domestic-scheduled-payments",
          "endpoint": "https://obp-api.danskebank.com/open-banking/v3.1/pisp/domestic-scheduled-payment-consents"
        },
        {
          "id": "OB-301-DOP-101100",
          "pass": true,
          "metrics": {
            "response_time": 224.6734,
            "response_size": 766
          },
          "detail": "Check a PISP can retrieve the Domestic Scheduled Payment status InitiationPending or InitiationCompleted.",
          "refURI": "https://openbanking.atlassian.net/wiki/spaces/DZ/pages/999786587/Domestic+Scheduled+Payment+v3.1.1#DomesticScheduledPaymentv3.1.1-GET/domestic-scheduled-payments/{DomesticScheduledPaymentId}",
          "endpoint": "https://obp-api.danskebank.com/open-banking/v3.1/pisp/domestic-scheduled-payment-consents/urn:obp:pi:3.1:c82b8f41-4c7d-4184-8e0e-4fc5b09256ac"
        },
        {
          "id": "OB-301-DOP-101300",
          "pass": true,
          "metrics": {
            "response_time": 165.9599,
            "response_size": 669
          },
          "detail": "Check PISP can retrieve Domestic Standing Order consent resource and status is Authorised.",
          "refURI": "https://openbanking.atlassian.net/wiki/spaces/DZ/pages/999786587/Domestic+Scheduled+Payment+v3.1.1#DomesticScheduledPaymentv3.1.1-GET/domestic-scheduled-payment-consents/{ConsentId}",
          "endpoint": "https://obp-api.danskebank.com/open-banking/v3.1/pisp/domestic-standing-order-consents/urn:obp:pi:3.1:aab68118-3d35-4bec-903f-369dde1f25b5"
        },
        {
          "id": "OB-301-DOP-101400",
          "pass": true,
          "metrics": {
            "response_time": 1282.4692,
            "response_size": 685
          },
          "detail": "Checks that the resource succeeds posting a Domestic Standing Order with a minimal data set and checks additional schema.",
          "refURI": "https://openbanking.atlassian.net/wiki/spaces/DZ/pages/1000670131/Domestic+Standing+Orders+v3.1.1#DomesticStandingOrdersv3.1.1-POST/domestic-standing-orders",
          "endpoint": "https://obp-api.danskebank.com/open-banking/v3.1/pisp/domestic-standing-orders"
        },
        {
          "id": "OB-301-DOP-101401",
          "pass": true,
          "metrics": {
            "response_time": 190.4112,
            "response_size": 613
          },
          "detail": "Checks that the resource fails posting a Domestic Standing Order with an invalid frequency value provided.",
          "refURI": "https://openbanking.atlassian.net/wiki/spaces/DZ/pages/1000670131/Domestic+Standing+Orders+v3.1.1#DomesticStandingOrdersv3.1.1-POST/domestic-standing-orders",
          "endpoint": "https://obp-api.danskebank.com/open-banking/v3.1/pisp/domestic-standing-orders"
        },
        {
          "id": "OB-301-DOP-101500",
          "pass": true,
          "metrics": {
            "response_time": 135.0717,
            "response_size": 685
          },
          "detail": "Check PISP can retrieve the Domestic Standing Order with additional schema checks.",
          "refURI": "https://openbanking.atlassian.net/wiki/spaces/DZ/pages/1000670131/Domestic+Standing+Orders+v3.1.1#DomesticStandingOrdersv3.1.1-GET/domestic-standing-orders/{DomesticStandingOrderId}",
          "endpoint": "https://obp-api.danskebank.com/open-banking/v3.1/pisp/domestic-standing-orders/1c00be2d-0dca-4135-895d-5ab232490474"
        }
      ]
    }
  ],
  "fcsVersion": "1.1.18",
  "products": [
    "Personal"
  ]
}