{
  "discoveryModel": {
    "name": "ob-v3.1-generic",
    "description": "An Open Banking UK discovery template for v3.1 of Accounts and Payments.",
    "discoveryVersion": "v0.4.0",
    "tokenAcquisition": "psu",
    "discoveryItems": [
      {
        "apiSpecification": {
          "name": "Confirmation of Funds API Specification",
          "url": "https://openbanking.atlassian.net/wiki/spaces/DZ/pages/937951380/Confirmation+of+Funds+API+Specification+-+v3.1",
          "version": "v3.1.0",
          "schemaVersion": "https://raw.githubusercontent.com/OpenBankingUK/read-write-api-specs/v3.1.0/dist/confirmation-funds-swagger.json",
          "manifest": "file://manifests/ob_3.1_cbpii_fca.json"
        },
        "openidConfigurationUri": "https://obp-auth.danskebank.com/open-banking/private/.well-known/openid-configuration",
        "resourceBaseUri": "https://obp-api.danskebank.com/open-banking/v3.1/cbpii",
        "endpoints": [
          {
            "method": "POST",
            "path": "/funds-confirmation-consents"
          },
          {
            "method": "GET",
            "path": "/funds-confirmation-consents/{ConsentId}"
          },
          {
            "method": "DELETE",
            "path": "/funds-confirmation-consents/{ConsentId}"
          },
          {
            "method": "POST",
            "path": "/funds-confirmations"
          }
        ]
      }
    ],
    "customTests": null
  }
}