{ 
"responseFields": [
 {
  "api": "Account and Transaction API Specification",
  "version": "v3.1.0",
  "endpoints": [
   {
    "method": "GET",
    "path": "/accounts",
    "responses": [
     {
      "code": "200",
      "fields": [
       "Data",
       "Data.Account",
       "Data.Account.Account",
       "Data.Account.Account.Identification",
       "Data.Account.Account.Name",
       "Data.Account.Account.SchemeName",
       "Data.Account.AccountId",
       "Data.Account.AccountSubType",
       "Data.Account.AccountType",
       "Data.Account.Currency",
       "Links",
       "Links.Self",
       "Meta"
      ]
     }
    ]
   },
   {
    "method": "GET",
    "path": "/accounts",
    "responses": [
     {
      "code": "401",
      "fields": [
       "Code",
       "Errors",
       "Id",
       "Message"
      ]
     }
    ]
   },
   {
    "method": "GET",
    "path": "/accounts/{AccountId}",
    "responses": [
     {
      "code": "401",
      "fields": [
       "Code",
       "Errors",
       "Id",
       "Message"
      ]
     }
    ]
   },
   {
    "method": "GET",
    "path": "/accounts/{AccountId}/transactions",
    "responses": [
     {
      "code": "401",
      "fields": [
       "Code",
       "Errors",
       "Id",
       "Message"
      ]
     }
    ]
   },
   {
    "method": "GET",
    "path": "/accounts/{AccountId}/balances",
    "responses": [
     {
      "code": "403",
      "fields": [
       "Code",
       "Errors",
       "Id",
       "Message"
      ]
     }
    ]
   },
   {
    "method": "GET",
    "path": "/accounts/{AccountId}",
    "responses": [
     {
      "code": "200",
      "fields": [
       "Data",
       "Data.Account",
       "Data.Account.Account",
       "Data.Account.Account.Identification",
       "Data.Account.Account.Name",
       "Data.Account.Account.SchemeName",
       "Data.Account.AccountId",
       "Data.Account.AccountSubType",
       "Data.Account.AccountType",
       "Data.Account.Currency",
       "Links",
       "Links.Self",
       "Meta"
      ]
     }
    ]
   },
   {
    "method": "GET",
    "path": "/accounts/{AccountId}/balances",
    "responses": [
     {
      "code": "200",
      "fields": [
       "Data",
       "Data.Balance",
       "Data.Balance.AccountId",
       "Data.Balance.Amount",
       "Data.Balance.Amount.Amount",
       "Data.Balance.Amount.Currency",
       "Data.Balance.CreditDebitIndicator",
       "Data.Balance.CreditLine",
       "Data.Balance.CreditLine.Amount",
       "Data.Balance.CreditLine.Amount.Amount",
       "Data.Balance.CreditLine.Amount.Currency",
       "Data.Balance.CreditLine.Included",
       "Data.Balance.CreditLine.Type",
       "Data.Balance.DateTime",
       "Data.Balance.Type",
       "Links",
       "Links.Self",
       "Meta"
      ]
     }
    ]
   },
   {
    "method": "GET",
    "path": "/accounts/{AccountId}/transactions",
    "responses": [
     {
      "code": "200",
      "fields": [
       "Data",
       "Data.Transaction",
       "Data.Transaction.AccountId",
       "Data.Transaction.Amount",
       "Data.Transaction.Amount.Amount",
       "Data.Transaction.Amount.Currency",
       "Data.Transaction.BookingDateTime",
       "Data.Transaction.CreditDebitIndicator",
       "Data.Transaction.MerchantDetails",
       "Data.Transaction.MerchantDetails.MerchantName",
       "Data.Transaction.ProprietaryBankTransactionCode",
       "Data.Transaction.ProprietaryBankTransactionCode.Code",
       "Data.Transaction.Status",
       "Links",
       "Links.Self",
       "Meta"
      ]
     }
    ]
   },
   {
    "method": "GET",
    "path": "/accounts/{AccountId}/balances",
    "responses": [
     {
      "code": "403",
      "fields": [
       "Code",
       "Errors",
       "Id",
       "Message"
      ]
     }
    ]
   },
   {
    "method": "GET",
    "path": "/accounts/{AccountId}/transactions",
    "responses": [
     {
      "code": "403",
      "fields": [
       "Code",
       "Errors",
       "Id",
       "Message"
      ]
     }
    ]
   },
   {
    "method": "POST",
    "path": "/account-access-consents",
    "responses": [
     {
      "code": "201",
      "fields": [
       "Data",
       "Data.ConsentId",
       "Data.CreationDateTime",
       "Data.Permissions",
       "Data.Status",
       "Data.TransactionFromDateTime",
       "Data.TransactionToDateTime",
       "Links",
       "Links.Self",
       "Meta",
       "Risk"
      ]
     }
    ]
   }
  ]
 }
]
}