{
  "id": "7e5f4cf7-6e6a-416c-847a-ccc31590fea2",
  "created": "2020-05-21T11:30:27Z",
  "expiration": "2020-08-21T11:30:27Z",
  "fails": 0,
  "version": "0.0.1",
  "status": "Complete",
  "certifiedBy": {
    "environment": "production",
    "brand": "Cater Allen",
    "authorisedBy": "Cater Allen",
    "jobTitle": "PIS Functional Conformance Suite Report"
  },
  "signatureChain": [],
  "apiSpecification": [
    {
      "name": "Payment Initiation API",
      "tls_version": "TLS12",
      "tls_version_valid": true,
      "version": "v3.1.0",
      "results": [
        {
          "id": "OB-301-DOP-100100",
          "pass": true,
          "metrics": {
            "response_time": 376.5059,
            "response_size": 638
          },
          "detail": "Check Domestic Payment consents returns in AwaitingAuthorisation.",
          "refURI": "https://openbanking.atlassian.net/wiki/spaces/DZ/pages/937984109/Domestic+Payments+v3.1#DomesticPaymentsv3.1-POST/domestic-payment-consents",
          "endpoint": "https://developer.caterallen.co.uk/open-banking/v3.1/pisp/domestic-payment-consents"
        },
        {
          "id": "OB-301-DOP-100400",
          "pass": true,
          "metrics": {
            "response_time": 163.6198,
            "response_size": 627
          },
          "detail": "Check Domestic Payment status is Authorised after calling /domestic-payment-consents.",
          "refURI": "https://openbanking.atlassian.net/wiki/spaces/DZ/pages/937984109/Domestic+Payments+v3.1#DomesticPaymentsv3.1-POST/domestic-payments",
          "endpoint": "https://developer.caterallen.co.uk/open-banking/v3.1/pisp/domestic-payment-consents/97060deb-851a-488a-9088-8702413bb787"
        },
        {
          "id": "OB-301-DOP-100500",
          "pass": true,
          "metrics": {
            "response_time": 437.2935,
            "response_size": 278
          },
          "detail": "Check PISP Domestic Payment funds-confirmation is Authorised, responds with a 200 (Status OK) and funds available.",
          "refURI": "https://openbanking.atlassian.net/wiki/spaces/DZ/pages/937984109/Domestic+Payments+v3.1#DomesticPaymentsv3.1-GET/domestic-payment-consents/{ConsentId}/funds-confirmation",
          "endpoint": "https://developer.caterallen.co.uk/open-banking/v3.1/pisp/domestic-payment-consents/97060deb-851a-488a-9088-8702413bb787/funds-confirmation"
        },
        {
          "id": "OB-301-DOP-100600",
          "pass": true,
          "metrics": {
            "response_time": 760.4107,
            "response_size": 635
          },
          "detail": "Check that once the domestic-payment-consent has been authorised by the PSU, the PISP can proceed to submitting the domestic-payment for processing.",
          "refURI": "https://openbanking.atlassian.net/wiki/spaces/DZ/pages/999623013/Domestic+Payments+v3.1.1#DomesticPaymentsv3.1.1-POST/domestic-payments",
          "endpoint": "https://developer.caterallen.co.uk/open-banking/v3.1/pisp/domestic-payments"
        },
        {
          "id": "OB-301-DOP-100700",
          "pass": true,
          "metrics": {
            "response_time": 273.1107,
            "response_size": 635
          },
          "detail": "Check PISP can retrieve the domestic-payment to check its status.",
          "refURI": "https://openbanking.atlassian.net/wiki/spaces/DZ/pages/999623013/Domestic+Payments+v3.1.1#DomesticPaymentsv3.1.1-GET/domestic-payments/{DomesticPaymentId}",
          "endpoint": "https://developer.caterallen.co.uk/open-banking/v3.1/pisp/domestic-payments/AAAB1CBC5C20"
        },
        {
          "id": "OB-301-DOP-100900",
          "pass": true,
          "metrics": {
            "response_time": 167.6683,
            "response_size": 722
          },
          "detail": "Check PISP can retrieve Domestic Scheduled Payment consent resource status is Authorised.",
          "refURI": "https://openbanking.atlassian.net/wiki/spaces/DZ/pages/999786587/Domestic+Scheduled+Payment+v3.1.1#DomesticScheduledPaymentv3.1.1-GET/domestic-scheduled-payment-consents/{ConsentId}",
          "endpoint": "https://developer.caterallen.co.uk/open-banking/v3.1/pisp/domestic-scheduled-payment-consents/f553e338-8d42-4fe9-b623-0034606aa925"
        },
        {
          "id": "OB-301-DOP-101100",
          "pass": true,
          "metrics": {
            "response_time": 154.4263,
            "response_size": 722
          },
          "detail": "Check a PISP can retrieve the Domestic Scheduled Payment status InitiationPending or InitiationCompleted.",
          "refURI": "https://openbanking.atlassian.net/wiki/spaces/DZ/pages/999786587/Domestic+Scheduled+Payment+v3.1.1#DomesticScheduledPaymentv3.1.1-GET/domestic-scheduled-payments/{DomesticScheduledPaymentId}",
          "endpoint": "https://developer.caterallen.co.uk/open-banking/v3.1/pisp/domestic-scheduled-payment-consents/be8d53b3-861f-42f4-a929-7425577e78e2"
        },
        {
          "id": "OB-301-DOP-101101",
          "pass": true,
          "metrics": {
            "response_time": 483.2269,
            "response_size": 727
          },
          "detail": "PISP can post a Domestic Scheduled Payment for processing and get a response of InitiationPending or InitiationCompleted.",
          "refURI": "https://openbanking.atlassian.net/wiki/spaces/DZ/pages/937558149/Domestic+Scheduled+Payment+v3.1#DomesticScheduledPaymentv3.1-POST/domestic-scheduled-payments",
          "endpoint": "https://developer.caterallen.co.uk/open-banking/v3.1/pisp/domestic-scheduled-payments"
        },
        {
          "id": "OB-301-DOP-101300",
          "pass": true,
          "metrics": {
            "response_time": 188.0537,
            "response_size": 624
          },
          "detail": "Check PISP can retrieve Domestic Standing Order consent resource and status is Authorised.",
          "refURI": "https://openbanking.atlassian.net/wiki/spaces/DZ/pages/999786587/Domestic+Scheduled+Payment+v3.1.1#DomesticScheduledPaymentv3.1.1-GET/domestic-scheduled-payment-consents/{ConsentId}",
          "endpoint": "https://developer.caterallen.co.uk/open-banking/v3.1/pisp/domestic-standing-order-consents/d5d2f227-146f-401b-b064-7e7459a02e7b"
        },
        {
          "id": "OB-301-DOP-101400",
          "pass": true,
          "metrics": {
            "response_time": 385.8169,
            "response_size": 626
          },
          "detail": "Checks that the resource succeeds posting a Domestic Standing Order with a minimal data set and checks additional schema.",
          "refURI": "https://openbanking.atlassian.net/wiki/spaces/DZ/pages/1000670131/Domestic+Standing+Orders+v3.1.1#DomesticStandingOrdersv3.1.1-POST/domestic-standing-orders",
          "endpoint": "https://developer.caterallen.co.uk/open-banking/v3.1/pisp/domestic-standing-orders"
        },
        {
          "id": "OB-301-DOP-101401",
          "pass": true,
          "metrics": {
            "response_time": 248.3705,
            "response_size": 249
          },
          "detail": "Checks that the resource fails posting a Domestic Standing Order with an invalid frequency value provided.",
          "refURI": "https://openbanking.atlassian.net/wiki/spaces/DZ/pages/1000670131/Domestic+Standing+Orders+v3.1.1#DomesticStandingOrdersv3.1.1-POST/domestic-standing-orders",
          "endpoint": "https://developer.caterallen.co.uk/open-banking/v3.1/pisp/domestic-standing-orders"
        },
        {
          "id": "OB-301-DOP-101500",
          "pass": true,
          "metrics": {
            "response_time": 201.9276,
            "response_size": 626
          },
          "detail": "Check PISP can retrieve the Domestic Standing Order with additional schema checks.",
          "refURI": "https://openbanking.atlassian.net/wiki/spaces/DZ/pages/1000670131/Domestic+Standing+Orders+v3.1.1#DomesticStandingOrdersv3.1.1-GET/domestic-standing-orders/{DomesticStandingOrderId}",
          "endpoint": "https://developer.caterallen.co.uk/open-banking/v3.1/pisp/domestic-standing-orders/AAAB1CBD4520"
        }
      ]
    }
  ],
  "fcsVersion": "1.4.0",
  "products": [
    "Personal"
  ]
}