{ 
"responseFields": [
 {
  "api": "Payment Initiation API",
  "version": "v3.1.0",
  "endpoints": [
   {
    "method": "GET",
    "path": "/domestic-payment-consents/{ConsentId}",
    "responses": [
     {
      "code": "200",
      "fields": [
       "Data",
       "Data.ConsentId",
       "Data.CreationDateTime",
       "Data.Initiation",
       "Data.Initiation.CreditorAccount",
       "Data.Initiation.CreditorAccount.Identification",
       "Data.Initiation.CreditorAccount.Name",
       "Data.Initiation.CreditorAccount.SchemeName",
       "Data.Initiation.EndToEndIdentification",
       "Data.Initiation.InstructedAmount",
       "Data.Initiation.InstructedAmount.Amount",
       "Data.Initiation.InstructedAmount.Currency",
       "Data.Initiation.InstructionIdentification",
       "Data.Status",
       "Data.StatusUpdateDateTime",
       "Links",
       "Links.Self",
       "Meta",
       "Risk"
      ]
     }
    ]
   },
   {
    "method": "GET",
    "path": "/domestic-payment-consents/{ConsentId}/funds-confirmation",
    "responses": [
     {
      "code": "200",
      "fields": [
       "Data",
       "Data.FundsAvailableResult",
       "Data.FundsAvailableResult.FundsAvailable",
       "Data.FundsAvailableResult.FundsAvailableDateTime",
       "Links",
       "Links.Self",
       "Meta"
      ]
     }
    ]
   },
   {
    "method": "GET",
    "path": "/domestic-payments/{DomesticPaymentId}",
    "responses": [
     {
      "code": "200",
      "fields": [
       "Data",
       "Data.ConsentId",
       "Data.CreationDateTime",
       "Data.DomesticPaymentId",
       "Data.Initiation",
       "Data.Initiation.CreditorAccount",
       "Data.Initiation.CreditorAccount.Identification",
       "Data.Initiation.CreditorAccount.Name",
       "Data.Initiation.CreditorAccount.SchemeName",
       "Data.Initiation.EndToEndIdentification",
       "Data.Initiation.InstructedAmount",
       "Data.Initiation.InstructedAmount.Amount",
       "Data.Initiation.InstructedAmount.Currency",
       "Data.Initiation.InstructionIdentification",
       "Data.Status",
       "Data.StatusUpdateDateTime",
       "Links",
       "Links.Self",
       "Meta"
      ]
     }
    ]
   },
   {
    "method": "GET",
    "path": "/domestic-scheduled-payment-consents/{ConsentId}",
    "responses": [
     {
      "code": "200",
      "fields": [
       "Data",
       "Data.ConsentId",
       "Data.CreationDateTime",
       "Data.Initiation",
       "Data.Initiation.CreditorAccount",
       "Data.Initiation.CreditorAccount.Identification",
       "Data.Initiation.CreditorAccount.Name",
       "Data.Initiation.CreditorAccount.SchemeName",
       "Data.Initiation.EndToEndIdentification",
       "Data.Initiation.InstructedAmount",
       "Data.Initiation.InstructedAmount.Amount",
       "Data.Initiation.InstructedAmount.Currency",
       "Data.Initiation.InstructionIdentification",
       "Data.Initiation.RequestedExecutionDateTime",
       "Data.Permission",
       "Data.Status",
       "Data.StatusUpdateDateTime",
       "Links",
       "Links.Self",
       "Meta",
       "Risk"
      ]
     }
    ]
   },
   {
    "method": "GET",
    "path": "/domestic-scheduled-payment-consents/{ConsentId}",
    "responses": [
     {
      "code": "200",
      "fields": [
       "Data",
       "Data.ConsentId",
       "Data.CreationDateTime",
       "Data.Initiation",
       "Data.Initiation.CreditorAccount",
       "Data.Initiation.CreditorAccount.Identification",
       "Data.Initiation.CreditorAccount.Name",
       "Data.Initiation.CreditorAccount.SchemeName",
       "Data.Initiation.EndToEndIdentification",
       "Data.Initiation.InstructedAmount",
       "Data.Initiation.InstructedAmount.Amount",
       "Data.Initiation.InstructedAmount.Currency",
       "Data.Initiation.InstructionIdentification",
       "Data.Initiation.RequestedExecutionDateTime",
       "Data.Permission",
       "Data.Status",
       "Data.StatusUpdateDateTime",
       "Links",
       "Links.Self",
       "Meta",
       "Risk"
      ]
     }
    ]
   },
   {
    "method": "GET",
    "path": "/domestic-standing-order-consents/(ConsentId}",
    "responses": [
     {
      "code": "200",
      "fields": [
       "Data",
       "Data.ConsentId",
       "Data.CreationDateTime",
       "Data.Initiation",
       "Data.Initiation.CreditorAccount",
       "Data.Initiation.CreditorAccount.Identification",
       "Data.Initiation.CreditorAccount.Name",
       "Data.Initiation.CreditorAccount.SchemeName",
       "Data.Initiation.FirstPaymentAmount",
       "Data.Initiation.FirstPaymentAmount.Amount",
       "Data.Initiation.FirstPaymentAmount.Currency",
       "Data.Initiation.FirstPaymentDateTime",
       "Data.Initiation.Frequency",
       "Data.Permission",
       "Data.Status",
       "Data.StatusUpdateDateTime",
       "Links",
       "Links.Self",
       "Meta",
       "Risk"
      ]
     }
    ]
   },
   {
    "method": "GET",
    "path": "/domestic-standing-orders/{DomesticStandingOrderId}",
    "responses": [
     {
      "code": "200",
      "fields": [
       "Data",
       "Data.ConsentId",
       "Data.CreationDateTime",
       "Data.DomesticStandingOrderId",
       "Data.Initiation",
       "Data.Initiation.CreditorAccount",
       "Data.Initiation.CreditorAccount.Identification",
       "Data.Initiation.CreditorAccount.Name",
       "Data.Initiation.CreditorAccount.SchemeName",
       "Data.Initiation.FirstPaymentAmount",
       "Data.Initiation.FirstPaymentAmount.Amount",
       "Data.Initiation.FirstPaymentAmount.Currency",
       "Data.Initiation.FirstPaymentDateTime",
       "Data.Initiation.Frequency",
       "Data.Status",
       "Data.StatusUpdateDateTime",
       "Links",
       "Links.Self",
       "Meta"
      ]
     }
    ]
   },
   {
    "method": "POST",
    "path": "/domestic-payment-consents",
    "responses": [
     {
      "code": "201",
      "fields": [
       "Data",
       "Data.ConsentId",
       "Data.CreationDateTime",
       "Data.Initiation",
       "Data.Initiation.CreditorAccount",
       "Data.Initiation.CreditorAccount.Identification",
       "Data.Initiation.CreditorAccount.Name",
       "Data.Initiation.CreditorAccount.SchemeName",
       "Data.Initiation.EndToEndIdentification",
       "Data.Initiation.InstructedAmount",
       "Data.Initiation.InstructedAmount.Amount",
       "Data.Initiation.InstructedAmount.Currency",
       "Data.Initiation.InstructionIdentification",
       "Data.Status",
       "Data.StatusUpdateDateTime",
       "Links",
       "Links.Self",
       "Meta",
       "Risk"
      ]
     }
    ]
   },
   {
    "method": "POST",
    "path": "/domestic-payments",
    "responses": [
     {
      "code": "201",
      "fields": [
       "Data",
       "Data.ConsentId",
       "Data.CreationDateTime",
       "Data.DomesticPaymentId",
       "Data.Initiation",
       "Data.Initiation.CreditorAccount",
       "Data.Initiation.CreditorAccount.Identification",
       "Data.Initiation.CreditorAccount.Name",
       "Data.Initiation.CreditorAccount.SchemeName",
       "Data.Initiation.EndToEndIdentification",
       "Data.Initiation.InstructedAmount",
       "Data.Initiation.InstructedAmount.Amount",
       "Data.Initiation.InstructedAmount.Currency",
       "Data.Initiation.InstructionIdentification",
       "Data.Status",
       "Data.StatusUpdateDateTime",
       "Links",
       "Links.Self",
       "Meta"
      ]
     }
    ]
   },
   {
    "method": "POST",
    "path": "/domestic-scheduled-payment-consents",
    "responses": [
     {
      "code": "201",
      "fields": [
       "Data",
       "Data.ConsentId",
       "Data.CreationDateTime",
       "Data.Initiation",
       "Data.Initiation.CreditorAccount",
       "Data.Initiation.CreditorAccount.Identification",
       "Data.Initiation.CreditorAccount.Name",
       "Data.Initiation.CreditorAccount.SchemeName",
       "Data.Initiation.EndToEndIdentification",
       "Data.Initiation.InstructedAmount",
       "Data.Initiation.InstructedAmount.Amount",
       "Data.Initiation.InstructedAmount.Currency",
       "Data.Initiation.InstructionIdentification",
       "Data.Initiation.RequestedExecutionDateTime",
       "Data.Permission",
       "Data.Status",
       "Data.StatusUpdateDateTime",
       "Links",
       "Links.Self",
       "Meta",
       "Risk"
      ]
     }
    ]
   },
   {
    "method": "POST",
    "path": "/domestic-scheduled-payments",
    "responses": [
     {
      "code": "201",
      "fields": [
       "Data",
       "Data.ConsentId",
       "Data.CreationDateTime",
       "Data.DomesticScheduledPaymentId",
       "Data.Initiation",
       "Data.Initiation.CreditorAccount",
       "Data.Initiation.CreditorAccount.Identification",
       "Data.Initiation.CreditorAccount.Name",
       "Data.Initiation.CreditorAccount.SchemeName",
       "Data.Initiation.EndToEndIdentification",
       "Data.Initiation.InstructedAmount",
       "Data.Initiation.InstructedAmount.Amount",
       "Data.Initiation.InstructedAmount.Currency",
       "Data.Initiation.InstructionIdentification",
       "Data.Initiation.RequestedExecutionDateTime",
       "Data.Status",
       "Data.StatusUpdateDateTime",
       "Links",
       "Links.Self",
       "Meta"
      ]
     }
    ]
   },
   {
    "method": "POST",
    "path": "/domestic-standing-order-consents",
    "responses": [
     {
      "code": "201",
      "fields": [
       "Data",
       "Data.ConsentId",
       "Data.CreationDateTime",
       "Data.Initiation",
       "Data.Initiation.CreditorAccount",
       "Data.Initiation.CreditorAccount.Identification",
       "Data.Initiation.CreditorAccount.Name",
       "Data.Initiation.CreditorAccount.SchemeName",
       "Data.Initiation.FirstPaymentAmount",
       "Data.Initiation.FirstPaymentAmount.Amount",
       "Data.Initiation.FirstPaymentAmount.Currency",
       "Data.Initiation.FirstPaymentDateTime",
       "Data.Initiation.Frequency",
       "Data.Permission",
       "Data.Status",
       "Data.StatusUpdateDateTime",
       "Links",
       "Links.Self",
       "Meta",
       "Risk"
      ]
     }
    ]
   },
   {
    "method": "POST",
    "path": "/domestic-standing-order",
    "responses": [
     {
      "code": "201",
      "fields": [
       "Data",
       "Data.ConsentId",
       "Data.CreationDateTime",
       "Data.DomesticStandingOrderId",
       "Data.Initiation",
       "Data.Initiation.CreditorAccount",
       "Data.Initiation.CreditorAccount.Identification",
       "Data.Initiation.CreditorAccount.Name",
       "Data.Initiation.CreditorAccount.SchemeName",
       "Data.Initiation.FirstPaymentAmount",
       "Data.Initiation.FirstPaymentAmount.Amount",
       "Data.Initiation.FirstPaymentAmount.Currency",
       "Data.Initiation.FirstPaymentDateTime",
       "Data.Initiation.Frequency",
       "Data.Status",
       "Data.StatusUpdateDateTime",
       "Links",
       "Links.Self",
       "Meta"
      ]
     }
    ]
   },
   {
    "method": "POST",
    "path": "/domestic-standing-order",
    "responses": [
     {
      "code": "400",
      "fields": [
       "Code",
       "Errors",
       "Id",
       "Message"
      ]
     }
    ]
   }
  ]
 }
]
}